ISO-10303-21;
HEADER;
/* Generated by software containing ST-Developer
 * from STEP Tools, Inc. (www.steptools.com) 
 */
/* OPTION: strings as raw bytes, not using required /X/ escapes */

FILE_DESCRIPTION(
/* description */ ('Unknown'),
/* implementation_level */ '2;1');

FILE_NAME(
/* name */ 'CornerB',
/* time_stamp */ '2021-08-06T16:15:23+02:00',
/* author */ ('Unknown'),
/* organization */ ('Unknown'),
/* preprocessor_version */ 'ST-DEVELOPER v16.7',
/* originating_system */ 'Solid Edge',
/* authorisation */ 'Unknown');

FILE_SCHEMA (('AUTOMOTIVE_DESIGN {1 0 10303 214 3 1 1}'));
ENDSEC;

DATA;
#10=PROPERTY_DEFINITION_REPRESENTATION(#14,#12);
#11=PROPERTY_DEFINITION_REPRESENTATION(#15,#13);
#12=REPRESENTATION('',(#16),#661);
#13=REPRESENTATION('',(#17),#661);
#14=PROPERTY_DEFINITION('pmi validation property','',#666);
#15=PROPERTY_DEFINITION('pmi validation property','',#666);
#16=VALUE_REPRESENTATION_ITEM('number of annotations',COUNT_MEASURE(0.));
#17=VALUE_REPRESENTATION_ITEM('number of views',COUNT_MEASURE(0.));
#18=SHAPE_REPRESENTATION_RELATIONSHIP('','',#369,#19);
#19=ADVANCED_BREP_SHAPE_REPRESENTATION('',(#367),#661);
#20=(
BOUNDED_SURFACE()
B_SPLINE_SURFACE(3,2,((#617,#618,#619),(#620,#621,#622),(#623,#624,#625),
(#626,#627,#628),(#629,#630,#631),(#632,#633,#634),(#635,#636,#637)),
 .UNSPECIFIED.,.F.,.F.,.F.)
B_SPLINE_SURFACE_WITH_KNOTS((4,1,1,1,4),(3,3),(4.71238898038469,5.10508806208341,
5.49778714378214,5.89048622548086,6.28318530717959),(0.,1.),
 .UNSPECIFIED.)
GEOMETRIC_REPRESENTATION_ITEM()
RATIONAL_B_SPLINE_SURFACE(((1.,1.,1.),(1.,1.,1.),(1.,0.973464424251629,
1.),(1.,0.86902903440624,1.),(1.,0.746571860830049,1.),(1.,0.707106781186802,
1.),(1.,0.707106781186548,1.)))
REPRESENTATION_ITEM('')
SURFACE()
);
#21=(
BOUNDED_SURFACE()
B_SPLINE_SURFACE(3,2,((#638,#639,#640),(#641,#642,#643),(#644,#645,#646),
(#647,#648,#649),(#650,#651,#652),(#653,#654,#655),(#656,#657,#658)),
 .UNSPECIFIED.,.F.,.F.,.F.)
B_SPLINE_SURFACE_WITH_KNOTS((4,1,1,1,4),(3,3),(1.5707963267949,1.96585160298381,
2.36090687917273,2.75596215536165,3.15101743155056),(0.,1.),
 .UNSPECIFIED.)
GEOMETRIC_REPRESENTATION_ITEM()
RATIONAL_B_SPLINE_SURFACE(((1.,1.,1.),(1.,1.,1.),(1.,0.973135400855292,
1.),(1.,0.867577951884983,1.),(1.,0.744536817611575,1.),(1.,0.706260683172714,
1.),(1.,0.707138184448272,1.)))
REPRESENTATION_ITEM('')
SURFACE()
);
#22=ELLIPSE('',#393,9.21954445729289,6.);
#23=ELLIPSE('',#394,9.21954445729289,6.);
#24=ELLIPSE('',#401,9.21954445729289,6.);
#25=ELLIPSE('',#402,9.21954445729289,6.);
#26=B_SPLINE_CURVE_WITH_KNOTS('',3,(#577,#578,#579,#580),.UNSPECIFIED.,
 .F.,.F.,(4,4),(4.33680868994202E-18,0.000640881327755671),
 .UNSPECIFIED.);
#27=B_SPLINE_CURVE_WITH_KNOTS('',3,(#599,#600,#601,#602),.UNSPECIFIED.,
 .F.,.F.,(4,4),(6.2546344413855E-18,0.00361226738254758),.UNSPECIFIED.);
#28=CYLINDRICAL_SURFACE('',#386,1.7);
#29=CYLINDRICAL_SURFACE('',#388,1.2);
#30=CYLINDRICAL_SURFACE('',#391,6.);
#31=CYLINDRICAL_SURFACE('',#395,5.25);
#32=CYLINDRICAL_SURFACE('',#400,6.);
#33=CYLINDRICAL_SURFACE('',#406,5.25);
#34=CYLINDRICAL_SURFACE('',#407,1.);
#35=CYLINDRICAL_SURFACE('',#409,1.2);
#36=CIRCLE('',#373,5.25);
#37=CIRCLE('',#374,6.);
#38=CIRCLE('',#376,1.7);
#39=CIRCLE('',#377,1.2);
#40=CIRCLE('',#378,1.2);
#41=CIRCLE('',#379,1.);
#42=CIRCLE('',#381,1.7);
#43=CIRCLE('',#382,1.2);
#44=CIRCLE('',#383,1.);
#45=CIRCLE('',#384,1.2);
#46=CIRCLE('',#390,6.);
#47=CIRCLE('',#392,6.);
#48=CIRCLE('',#396,5.25);
#49=CIRCLE('',#397,5.25);
#50=CIRCLE('',#405,5.25);
#51=CIRCLE('',#408,1.);
#52=ORIENTED_EDGE('',*,*,#144,.T.);
#53=ORIENTED_EDGE('',*,*,#145,.T.);
#54=ORIENTED_EDGE('',*,*,#146,.F.);
#55=ORIENTED_EDGE('',*,*,#147,.T.);
#56=ORIENTED_EDGE('',*,*,#148,.T.);
#57=ORIENTED_EDGE('',*,*,#149,.F.);
#58=ORIENTED_EDGE('',*,*,#150,.T.);
#59=ORIENTED_EDGE('',*,*,#151,.T.);
#60=ORIENTED_EDGE('',*,*,#152,.T.);
#61=ORIENTED_EDGE('',*,*,#153,.T.);
#62=ORIENTED_EDGE('',*,*,#154,.T.);
#63=ORIENTED_EDGE('',*,*,#155,.T.);
#64=ORIENTED_EDGE('',*,*,#144,.F.);
#65=ORIENTED_EDGE('',*,*,#156,.T.);
#66=ORIENTED_EDGE('',*,*,#157,.F.);
#67=ORIENTED_EDGE('',*,*,#158,.F.);
#68=ORIENTED_EDGE('',*,*,#159,.T.);
#69=ORIENTED_EDGE('',*,*,#160,.F.);
#70=ORIENTED_EDGE('',*,*,#146,.T.);
#71=ORIENTED_EDGE('',*,*,#161,.T.);
#72=ORIENTED_EDGE('',*,*,#162,.T.);
#73=ORIENTED_EDGE('',*,*,#163,.T.);
#74=ORIENTED_EDGE('',*,*,#164,.T.);
#75=ORIENTED_EDGE('',*,*,#149,.T.);
#76=ORIENTED_EDGE('',*,*,#165,.F.);
#77=ORIENTED_EDGE('',*,*,#166,.T.);
#78=ORIENTED_EDGE('',*,*,#167,.T.);
#79=ORIENTED_EDGE('',*,*,#162,.F.);
#80=ORIENTED_EDGE('',*,*,#168,.T.);
#81=ORIENTED_EDGE('',*,*,#154,.F.);
#82=ORIENTED_EDGE('',*,*,#169,.T.);
#83=ORIENTED_EDGE('',*,*,#153,.F.);
#84=ORIENTED_EDGE('',*,*,#160,.T.);
#85=ORIENTED_EDGE('',*,*,#157,.T.);
#86=ORIENTED_EDGE('',*,*,#170,.T.);
#87=ORIENTED_EDGE('',*,*,#166,.F.);
#88=ORIENTED_EDGE('',*,*,#171,.F.);
#89=ORIENTED_EDGE('',*,*,#172,.T.);
#90=ORIENTED_EDGE('',*,*,#173,.T.);
#91=ORIENTED_EDGE('',*,*,#156,.F.);
#92=ORIENTED_EDGE('',*,*,#147,.F.);
#93=ORIENTED_EDGE('',*,*,#167,.F.);
#94=ORIENTED_EDGE('',*,*,#170,.F.);
#95=ORIENTED_EDGE('',*,*,#174,.T.);
#96=ORIENTED_EDGE('',*,*,#175,.T.);
#97=ORIENTED_EDGE('',*,*,#158,.T.);
#98=ORIENTED_EDGE('',*,*,#173,.F.);
#99=ORIENTED_EDGE('',*,*,#176,.F.);
#100=ORIENTED_EDGE('',*,*,#177,.F.);
#101=ORIENTED_EDGE('',*,*,#178,.T.);
#102=ORIENTED_EDGE('',*,*,#179,.T.);
#103=ORIENTED_EDGE('',*,*,#176,.T.);
#104=ORIENTED_EDGE('',*,*,#172,.F.);
#105=ORIENTED_EDGE('',*,*,#180,.T.);
#106=ORIENTED_EDGE('',*,*,#181,.F.);
#107=ORIENTED_EDGE('',*,*,#181,.T.);
#108=ORIENTED_EDGE('',*,*,#182,.F.);
#109=ORIENTED_EDGE('',*,*,#183,.T.);
#110=ORIENTED_EDGE('',*,*,#177,.T.);
#111=ORIENTED_EDGE('',*,*,#171,.T.);
#112=ORIENTED_EDGE('',*,*,#165,.T.);
#113=ORIENTED_EDGE('',*,*,#152,.F.);
#114=ORIENTED_EDGE('',*,*,#180,.F.);
#115=ORIENTED_EDGE('',*,*,#184,.T.);
#116=ORIENTED_EDGE('',*,*,#185,.T.);
#117=ORIENTED_EDGE('',*,*,#182,.T.);
#118=ORIENTED_EDGE('',*,*,#151,.F.);
#119=ORIENTED_EDGE('',*,*,#186,.F.);
#120=ORIENTED_EDGE('',*,*,#164,.F.);
#121=ORIENTED_EDGE('',*,*,#187,.T.);
#122=ORIENTED_EDGE('',*,*,#186,.T.);
#123=ORIENTED_EDGE('',*,*,#150,.F.);
#124=ORIENTED_EDGE('',*,*,#188,.F.);
#125=ORIENTED_EDGE('',*,*,#188,.T.);
#126=ORIENTED_EDGE('',*,*,#148,.F.);
#127=ORIENTED_EDGE('',*,*,#159,.F.);
#128=ORIENTED_EDGE('',*,*,#175,.F.);
#129=ORIENTED_EDGE('',*,*,#189,.F.);
#130=ORIENTED_EDGE('',*,*,#187,.F.);
#131=ORIENTED_EDGE('',*,*,#163,.F.);
#132=ORIENTED_EDGE('',*,*,#169,.F.);
#133=ORIENTED_EDGE('',*,*,#179,.F.);
#134=ORIENTED_EDGE('',*,*,#184,.F.);
#135=ORIENTED_EDGE('',*,*,#189,.T.);
#136=ORIENTED_EDGE('',*,*,#174,.F.);
#137=ORIENTED_EDGE('',*,*,#183,.F.);
#138=ORIENTED_EDGE('',*,*,#185,.F.);
#139=ORIENTED_EDGE('',*,*,#178,.F.);
#140=ORIENTED_EDGE('',*,*,#161,.F.);
#141=ORIENTED_EDGE('',*,*,#145,.F.);
#142=ORIENTED_EDGE('',*,*,#155,.F.);
#143=ORIENTED_EDGE('',*,*,#168,.F.);
#144=EDGE_CURVE('',#190,#191,#222,.T.);
#145=EDGE_CURVE('',#191,#192,#223,.F.);
#146=EDGE_CURVE('',#193,#192,#224,.T.);
#147=EDGE_CURVE('',#193,#190,#225,.F.);
#148=EDGE_CURVE('',#194,#194,#36,.T.);
#149=EDGE_CURVE('',#195,#196,#226,.T.);
#150=EDGE_CURVE('',#195,#197,#227,.T.);
#151=EDGE_CURVE('',#197,#198,#37,.T.);
#152=EDGE_CURVE('',#198,#196,#228,.T.);
#153=EDGE_CURVE('',#199,#199,#38,.T.);
#154=EDGE_CURVE('',#200,#201,#229,.T.);
#155=EDGE_CURVE('',#201,#191,#39,.F.);
#156=EDGE_CURVE('',#190,#202,#40,.F.);
#157=EDGE_CURVE('',#203,#202,#230,.T.);
#158=EDGE_CURVE('',#204,#203,#231,.T.);
#159=EDGE_CURVE('',#204,#200,#41,.T.);
#160=EDGE_CURVE('',#205,#205,#42,.T.);
#161=EDGE_CURVE('',#192,#206,#43,.T.);
#162=EDGE_CURVE('',#206,#207,#232,.T.);
#163=EDGE_CURVE('',#207,#208,#44,.F.);
#164=EDGE_CURVE('',#208,#195,#233,.T.);
#165=EDGE_CURVE('',#209,#196,#234,.T.);
#166=EDGE_CURVE('',#209,#210,#235,.T.);
#167=EDGE_CURVE('',#210,#193,#45,.T.);
#168=EDGE_CURVE('',#206,#201,#236,.T.);
#169=EDGE_CURVE('',#200,#207,#237,.F.);
#170=EDGE_CURVE('',#202,#210,#238,.T.);
#171=EDGE_CURVE('',#211,#209,#239,.T.);
#172=EDGE_CURVE('',#211,#212,#240,.T.);
#173=EDGE_CURVE('',#212,#203,#241,.T.);
#174=EDGE_CURVE('',#213,#214,#26,.T.);
#175=EDGE_CURVE('',#214,#204,#242,.F.);
#176=EDGE_CURVE('',#213,#212,#46,.T.);
#177=EDGE_CURVE('',#215,#211,#47,.T.);
#178=EDGE_CURVE('',#215,#216,#22,.T.);
#179=EDGE_CURVE('',#216,#213,#23,.F.);
#180=EDGE_CURVE('',#217,#217,#48,.F.);
#181=EDGE_CURVE('',#218,#218,#49,.T.);
#182=EDGE_CURVE('',#219,#198,#243,.T.);
#183=EDGE_CURVE('',#219,#215,#27,.F.);
#184=EDGE_CURVE('',#220,#216,#24,.T.);
#185=EDGE_CURVE('',#216,#219,#25,.F.);
#186=EDGE_CURVE('',#220,#197,#244,.T.);
#187=EDGE_CURVE('',#208,#220,#245,.T.);
#188=EDGE_CURVE('',#221,#221,#50,.T.);
#189=EDGE_CURVE('',#220,#214,#51,.F.);
#190=VERTEX_POINT('',#517);
#191=VERTEX_POINT('',#518);
#192=VERTEX_POINT('',#520);
#193=VERTEX_POINT('',#522);
#194=VERTEX_POINT('',#526);
#195=VERTEX_POINT('',#528);
#196=VERTEX_POINT('',#529);
#197=VERTEX_POINT('',#531);
#198=VERTEX_POINT('',#533);
#199=VERTEX_POINT('',#537);
#200=VERTEX_POINT('',#539);
#201=VERTEX_POINT('',#540);
#202=VERTEX_POINT('',#543);
#203=VERTEX_POINT('',#545);
#204=VERTEX_POINT('',#547);
#205=VERTEX_POINT('',#551);
#206=VERTEX_POINT('',#553);
#207=VERTEX_POINT('',#555);
#208=VERTEX_POINT('',#557);
#209=VERTEX_POINT('',#560);
#210=VERTEX_POINT('',#562);
#211=VERTEX_POINT('',#571);
#212=VERTEX_POINT('',#573);
#213=VERTEX_POINT('',#581);
#214=VERTEX_POINT('',#582);
#215=VERTEX_POINT('',#587);
#216=VERTEX_POINT('',#589);
#217=VERTEX_POINT('',#593);
#218=VERTEX_POINT('',#595);
#219=VERTEX_POINT('',#598);
#220=VERTEX_POINT('',#606);
#221=VERTEX_POINT('',#613);
#222=LINE('',#516,#246);
#223=LINE('',#519,#247);
#224=LINE('',#521,#248);
#225=LINE('',#523,#249);
#226=LINE('',#527,#250);
#227=LINE('',#530,#251);
#228=LINE('',#534,#252);
#229=LINE('',#538,#253);
#230=LINE('',#544,#254);
#231=LINE('',#546,#255);
#232=LINE('',#554,#256);
#233=LINE('',#558,#257);
#234=LINE('',#559,#258);
#235=LINE('',#561,#259);
#236=LINE('',#565,#260);
#237=LINE('',#566,#261);
#238=LINE('',#569,#262);
#239=LINE('',#570,#263);
#240=LINE('',#572,#264);
#241=LINE('',#574,#265);
#242=LINE('',#583,#266);
#243=LINE('',#597,#267);
#244=LINE('',#608,#268);
#245=LINE('',#610,#269);
#246=VECTOR('',#414,1000.);
#247=VECTOR('',#415,1000.);
#248=VECTOR('',#416,1000.);
#249=VECTOR('',#417,1000.);
#250=VECTOR('',#422,1000.);
#251=VECTOR('',#423,1000.);
#252=VECTOR('',#426,1000.);
#253=VECTOR('',#431,1000.);
#254=VECTOR('',#436,1000.);
#255=VECTOR('',#437,1000.);
#256=VECTOR('',#446,1000.);
#257=VECTOR('',#449,1000.);
#258=VECTOR('',#450,1000.);
#259=VECTOR('',#451,1000.);
#260=VECTOR('',#456,1000.);
#261=VECTOR('',#457,1000.);
#262=VECTOR('',#462,1000.);
#263=VECTOR('',#463,1000.);
#264=VECTOR('',#464,1000.);
#265=VECTOR('',#465,1000.);
#266=VECTOR('',#470,1000.);
#267=VECTOR('',#489,1000.);
#268=VECTOR('',#498,1000.);
#269=VECTOR('',#501,1000.);
#270=EDGE_LOOP('',(#52,#53,#54,#55));
#271=EDGE_LOOP('',(#56));
#272=EDGE_LOOP('',(#57,#58,#59,#60));
#273=EDGE_LOOP('',(#61));
#274=EDGE_LOOP('',(#62,#63,#64,#65,#66,#67,#68));
#275=EDGE_LOOP('',(#69));
#276=EDGE_LOOP('',(#70,#71,#72,#73,#74,#75,#76,#77,#78));
#277=EDGE_LOOP('',(#79,#80,#81,#82));
#278=EDGE_LOOP('',(#83));
#279=EDGE_LOOP('',(#84));
#280=EDGE_LOOP('',(#85,#86,#87,#88,#89,#90));
#281=EDGE_LOOP('',(#91,#92,#93,#94));
#282=EDGE_LOOP('',(#95,#96,#97,#98,#99));
#283=EDGE_LOOP('',(#100,#101,#102,#103,#104));
#284=EDGE_LOOP('',(#105));
#285=EDGE_LOOP('',(#106));
#286=EDGE_LOOP('',(#107));
#287=EDGE_LOOP('',(#108,#109,#110,#111,#112,#113));
#288=EDGE_LOOP('',(#114));
#289=EDGE_LOOP('',(#115,#116,#117,#118,#119));
#290=EDGE_LOOP('',(#120,#121,#122,#123));
#291=EDGE_LOOP('',(#124));
#292=EDGE_LOOP('',(#125));
#293=EDGE_LOOP('',(#126));
#294=EDGE_LOOP('',(#127,#128,#129,#130,#131,#132));
#295=EDGE_LOOP('',(#133,#134,#135,#136));
#296=EDGE_LOOP('',(#137,#138,#139));
#297=EDGE_LOOP('',(#140,#141,#142,#143));
#298=FACE_BOUND('',#270,.T.);
#299=FACE_BOUND('',#271,.T.);
#300=FACE_BOUND('',#272,.T.);
#301=FACE_BOUND('',#273,.T.);
#302=FACE_BOUND('',#274,.T.);
#303=FACE_BOUND('',#275,.T.);
#304=FACE_BOUND('',#276,.T.);
#305=FACE_BOUND('',#277,.T.);
#306=FACE_BOUND('',#278,.T.);
#307=FACE_BOUND('',#279,.T.);
#308=FACE_BOUND('',#280,.T.);
#309=FACE_BOUND('',#281,.T.);
#310=FACE_BOUND('',#282,.T.);
#311=FACE_BOUND('',#283,.T.);
#312=FACE_BOUND('',#284,.T.);
#313=FACE_BOUND('',#285,.T.);
#314=FACE_BOUND('',#286,.T.);
#315=FACE_BOUND('',#287,.T.);
#316=FACE_BOUND('',#288,.T.);
#317=FACE_BOUND('',#289,.T.);
#318=FACE_BOUND('',#290,.T.);
#319=FACE_BOUND('',#291,.T.);
#320=FACE_BOUND('',#292,.T.);
#321=FACE_BOUND('',#293,.T.);
#322=FACE_BOUND('',#294,.T.);
#323=FACE_BOUND('',#295,.T.);
#324=FACE_BOUND('',#296,.T.);
#325=FACE_BOUND('',#297,.T.);
#326=PLANE('',#371);
#327=PLANE('',#372);
#328=PLANE('',#375);
#329=PLANE('',#380);
#330=PLANE('',#385);
#331=PLANE('',#387);
#332=PLANE('',#389);
#333=PLANE('',#398);
#334=PLANE('',#399);
#335=PLANE('',#403);
#336=PLANE('',#404);
#337=ADVANCED_FACE('',(#298),#326,.T.);
#338=ADVANCED_FACE('',(#299,#300),#327,.T.);
#339=ADVANCED_FACE('',(#301,#302),#328,.F.);
#340=ADVANCED_FACE('',(#303,#304),#329,.T.);
#341=ADVANCED_FACE('',(#305),#330,.F.);
#342=ADVANCED_FACE('',(#306,#307),#28,.F.);
#343=ADVANCED_FACE('',(#308),#331,.T.);
#344=ADVANCED_FACE('',(#309),#29,.T.);
#345=ADVANCED_FACE('',(#310),#332,.F.);
#346=ADVANCED_FACE('',(#311),#30,.T.);
#347=ADVANCED_FACE('',(#312,#313),#31,.F.);
#348=ADVANCED_FACE('',(#314,#315),#333,.T.);
#349=ADVANCED_FACE('',(#316),#334,.T.);
#350=ADVANCED_FACE('',(#317),#32,.T.);
#351=ADVANCED_FACE('',(#318),#335,.T.);
#352=ADVANCED_FACE('',(#319),#336,.F.);
#353=ADVANCED_FACE('',(#320,#321),#33,.F.);
#354=ADVANCED_FACE('',(#322),#34,.F.);
#355=ADVANCED_FACE('',(#323),#20,.F.);
#356=ADVANCED_FACE('',(#324),#21,.F.);
#357=ADVANCED_FACE('',(#325),#35,.T.);
#358=CLOSED_SHELL('',(#337,#338,#339,#340,#341,#342,#343,#344,#345,#346,
#347,#348,#349,#350,#351,#352,#353,#354,#355,#356,#357));
#359=STYLED_ITEM('',(#360),#367);
#360=PRESENTATION_STYLE_ASSIGNMENT((#361));
#361=SURFACE_STYLE_USAGE(.BOTH.,#362);
#362=SURFACE_SIDE_STYLE('',(#363));
#363=SURFACE_STYLE_FILL_AREA(#364);
#364=FILL_AREA_STYLE('',(#365));
#365=FILL_AREA_STYLE_COLOUR('',#366);
#366=COLOUR_RGB('',0.819999992847443,0.819999992847443,0.819999992847443);
#367=MANIFOLD_SOLID_BREP('',#358);
#368=SHAPE_DEFINITION_REPRESENTATION(#666,#369);
#369=SHAPE_REPRESENTATION('CornerB',(#370),#661);
#370=AXIS2_PLACEMENT_3D('',#514,#410,#411);
#371=AXIS2_PLACEMENT_3D('',#515,#412,#413);
#372=AXIS2_PLACEMENT_3D('',#524,#418,#419);
#373=AXIS2_PLACEMENT_3D('',#525,#420,#421);
#374=AXIS2_PLACEMENT_3D('',#532,#424,#425);
#375=AXIS2_PLACEMENT_3D('',#535,#427,#428);
#376=AXIS2_PLACEMENT_3D('',#536,#429,#430);
#377=AXIS2_PLACEMENT_3D('',#541,#432,#433);
#378=AXIS2_PLACEMENT_3D('',#542,#434,#435);
#379=AXIS2_PLACEMENT_3D('',#548,#438,#439);
#380=AXIS2_PLACEMENT_3D('',#549,#440,#441);
#381=AXIS2_PLACEMENT_3D('',#550,#442,#443);
#382=AXIS2_PLACEMENT_3D('',#552,#444,#445);
#383=AXIS2_PLACEMENT_3D('',#556,#447,#448);
#384=AXIS2_PLACEMENT_3D('',#563,#452,#453);
#385=AXIS2_PLACEMENT_3D('',#564,#454,#455);
#386=AXIS2_PLACEMENT_3D('',#567,#458,#459);
#387=AXIS2_PLACEMENT_3D('',#568,#460,#461);
#388=AXIS2_PLACEMENT_3D('',#575,#466,#467);
#389=AXIS2_PLACEMENT_3D('',#576,#468,#469);
#390=AXIS2_PLACEMENT_3D('',#584,#471,#472);
#391=AXIS2_PLACEMENT_3D('',#585,#473,#474);
#392=AXIS2_PLACEMENT_3D('',#586,#475,#476);
#393=AXIS2_PLACEMENT_3D('',#588,#477,#478);
#394=AXIS2_PLACEMENT_3D('',#590,#479,#480);
#395=AXIS2_PLACEMENT_3D('',#591,#481,#482);
#396=AXIS2_PLACEMENT_3D('',#592,#483,#484);
#397=AXIS2_PLACEMENT_3D('',#594,#485,#486);
#398=AXIS2_PLACEMENT_3D('',#596,#487,#488);
#399=AXIS2_PLACEMENT_3D('',#603,#490,#491);
#400=AXIS2_PLACEMENT_3D('',#604,#492,#493);
#401=AXIS2_PLACEMENT_3D('',#605,#494,#495);
#402=AXIS2_PLACEMENT_3D('',#607,#496,#497);
#403=AXIS2_PLACEMENT_3D('',#609,#499,#500);
#404=AXIS2_PLACEMENT_3D('',#611,#502,#503);
#405=AXIS2_PLACEMENT_3D('',#612,#504,#505);
#406=AXIS2_PLACEMENT_3D('',#614,#506,#507);
#407=AXIS2_PLACEMENT_3D('',#615,#508,#509);
#408=AXIS2_PLACEMENT_3D('',#616,#510,#511);
#409=AXIS2_PLACEMENT_3D('',#659,#512,#513);
#410=DIRECTION('',(0.,0.,1.));
#411=DIRECTION('',(1.,0.,0.));
#412=DIRECTION('',(-1.,0.,0.));
#413=DIRECTION('',(0.,0.,1.));
#414=DIRECTION('',(0.,1.,0.));
#415=DIRECTION('',(0.,0.,1.));
#416=DIRECTION('',(0.,1.,0.));
#417=DIRECTION('',(0.,0.,-1.));
#418=DIRECTION('',(0.,1.,0.));
#419=DIRECTION('',(0.,0.,1.));
#420=DIRECTION('',(0.,-1.,0.));
#421=DIRECTION('',(-1.,0.,0.));
#422=DIRECTION('',(1.,0.,0.));
#423=DIRECTION('',(1.73472347597684E-15,0.,1.));
#424=DIRECTION('',(0.,1.,0.));
#425=DIRECTION('',(-1.,0.,0.));
#426=DIRECTION('',(0.,0.,-1.));
#427=DIRECTION('',(0.,0.,-1.));
#428=DIRECTION('',(-1.,0.,0.));
#429=DIRECTION('',(0.,0.,-1.));
#430=DIRECTION('',(1.,0.,0.));
#431=DIRECTION('',(-1.,0.,0.));
#432=DIRECTION('',(0.,0.,-1.));
#433=DIRECTION('',(-1.,0.,0.));
#434=DIRECTION('',(0.,0.,-1.));
#435=DIRECTION('',(-1.,0.,0.));
#436=DIRECTION('',(-1.,0.,0.));
#437=DIRECTION('',(8.67361737988404E-17,-1.,0.));
#438=DIRECTION('',(0.,0.,-1.));
#439=DIRECTION('',(-1.,0.,0.));
#440=DIRECTION('',(0.,0.,-1.));
#441=DIRECTION('',(-1.,0.,0.));
#442=DIRECTION('',(0.,0.,-1.));
#443=DIRECTION('',(1.,0.,0.));
#444=DIRECTION('',(0.,0.,-1.));
#445=DIRECTION('',(-1.,0.,0.));
#446=DIRECTION('',(1.,0.,0.));
#447=DIRECTION('',(0.,0.,-1.));
#448=DIRECTION('',(-1.,0.,0.));
#449=DIRECTION('',(0.,1.,0.));
#450=DIRECTION('',(-8.67361737988404E-17,1.,0.));
#451=DIRECTION('',(-1.,0.,0.));
#452=DIRECTION('',(0.,0.,-1.));
#453=DIRECTION('',(-1.,0.,0.));
#454=DIRECTION('',(8.67361737988404E-17,-1.,0.));
#455=DIRECTION('',(1.,8.67361737988404E-17,0.));
#456=DIRECTION('',(0.,0.,1.));
#457=DIRECTION('',(1.73472347597684E-15,1.50463276905256E-31,1.));
#458=DIRECTION('',(0.,0.,-1.));
#459=DIRECTION('',(-1.,0.,0.));
#460=DIRECTION('',(0.,-1.,0.));
#461=DIRECTION('',(0.,0.,-1.));
#462=DIRECTION('',(0.,0.,-1.));
#463=DIRECTION('',(-4.62963928939239E-32,5.33761069531325E-16,-1.));
#464=DIRECTION('',(-1.,-8.67361737988404E-17,0.));
#465=DIRECTION('',(-4.62963928939239E-32,5.33761069531325E-16,-1.));
#466=DIRECTION('',(0.,0.,-1.));
#467=DIRECTION('',(-1.,0.,0.));
#468=DIRECTION('',(1.,8.67361737988404E-17,0.));
#469=DIRECTION('',(-8.67361737988404E-17,1.,0.));
#470=DIRECTION('',(1.73472347597684E-15,1.50463276905256E-31,1.));
#471=DIRECTION('',(1.,8.67361737988404E-17,0.));
#472=DIRECTION('',(-8.67361737988404E-17,1.,0.));
#473=DIRECTION('',(-1.,-8.67361737988404E-17,0.));
#474=DIRECTION('',(8.67361737988404E-17,-1.,0.));
#475=DIRECTION('',(1.,8.67361737988404E-17,0.));
#476=DIRECTION('',(-8.67361737988404E-17,1.,0.));
#477=DIRECTION('',(0.650791373455968,-0.759256602365296,0.));
#478=DIRECTION('',(-0.759256602365297,-0.650791373455969,0.));
#479=DIRECTION('',(0.650791373455968,0.759256602365297,0.));
#480=DIRECTION('',(-0.759256602365297,0.650791373455969,0.));
#481=DIRECTION('',(-1.,-8.67361737988404E-17,0.));
#482=DIRECTION('',(8.67361737988404E-17,-1.,0.));
#483=DIRECTION('',(1.,8.67361737988404E-17,0.));
#484=DIRECTION('',(-8.67361737988404E-17,1.,0.));
#485=DIRECTION('',(-1.,-8.67361737988404E-17,0.));
#486=DIRECTION('',(-8.67361737988404E-17,1.,0.));
#487=DIRECTION('',(1.,8.67361737988404E-17,0.));
#488=DIRECTION('',(-8.67361737988404E-17,1.,0.));
#489=DIRECTION('',(0.,1.,0.));
#490=DIRECTION('',(1.,8.67361737988404E-17,0.));
#491=DIRECTION('',(-8.67361737988404E-17,1.,0.));
#492=DIRECTION('',(0.,1.,0.));
#493=DIRECTION('',(0.,0.,1.));
#494=DIRECTION('',(0.759256602365296,0.650791373455968,0.));
#495=DIRECTION('',(-0.650791373455969,0.759256602365297,0.));
#496=DIRECTION('',(0.759256602365296,-0.650791373455968,0.));
#497=DIRECTION('',(-0.650791373455968,-0.759256602365296,0.));
#498=DIRECTION('',(0.,1.,0.));
#499=DIRECTION('',(-1.,0.,1.73472347597684E-15));
#500=DIRECTION('',(1.73472347597684E-15,0.,1.));
#501=DIRECTION('',(1.73472347597684E-15,1.50463276905256E-31,1.));
#502=DIRECTION('',(0.,-1.,0.));
#503=DIRECTION('',(0.,0.,-1.));
#504=DIRECTION('',(0.,-1.,0.));
#505=DIRECTION('',(-1.,0.,0.));
#506=DIRECTION('',(0.,1.,0.));
#507=DIRECTION('',(0.,0.,1.));
#508=DIRECTION('',(1.73472347597684E-15,1.50463276905256E-31,1.));
#509=DIRECTION('',(1.,0.,-1.73472347597684E-15));
#510=DIRECTION('',(1.73472347597684E-15,1.50463276905256E-31,1.));
#511=DIRECTION('',(1.,0.,-1.73472347597684E-15));
#512=DIRECTION('',(0.,0.,-1.));
#513=DIRECTION('',(-1.,0.,0.));
#514=CARTESIAN_POINT('',(0.,0.,0.));
#515=CARTESIAN_POINT('',(-5.0800000001664,-5.08,6.));
#516=CARTESIAN_POINT('',(-5.0800000001664,-5.08,6.));
#517=CARTESIAN_POINT('',(-5.0800000001664,-1.98,6.));
#518=CARTESIAN_POINT('',(-5.0800000001664,7.62,6.));
#519=CARTESIAN_POINT('',(-5.0800000001664,7.62,0.));
#520=CARTESIAN_POINT('',(-5.0800000001664,7.62,0.));
#521=CARTESIAN_POINT('',(-5.0800000001664,-5.08,0.));
#522=CARTESIAN_POINT('',(-5.0800000001664,-1.98,0.));
#523=CARTESIAN_POINT('',(-5.0800000001664,-1.98,6.));
#524=CARTESIAN_POINT('',(-5.0800000001664,14.92,6.));
#525=CARTESIAN_POINT('',(9.87999999999999,14.92,6.5));
#526=CARTESIAN_POINT('',(4.62999999999999,14.92,6.5));
#527=CARTESIAN_POINT('',(-5.0800000001664,14.92,0.));
#528=CARTESIAN_POINT('',(3.87999999999999,14.92,-6.93889390390723E-15));
#529=CARTESIAN_POINT('',(15.88,14.92,0.));
#530=CARTESIAN_POINT('',(3.87999999999999,14.92,6.49999999999999));
#531=CARTESIAN_POINT('',(3.87999999999999,14.92,6.49999999999999));
#532=CARTESIAN_POINT('',(9.87999999999999,14.92,6.49999999999999));
#533=CARTESIAN_POINT('',(15.88,14.92,6.49999999999999));
#534=CARTESIAN_POINT('',(15.88,14.92,6.49999999999999));
#535=CARTESIAN_POINT('',(0.,0.,6.));
#536=CARTESIAN_POINT('',(0.,0.,6.));
#537=CARTESIAN_POINT('',(1.7,0.,6.));
#538=CARTESIAN_POINT('',(3.87999999999999,8.82,6.));
#539=CARTESIAN_POINT('',(2.87999999999999,8.82,6.));
#540=CARTESIAN_POINT('',(-3.8800000001664,8.82,6.));
#541=CARTESIAN_POINT('',(-3.8800000001664,7.62,6.));
#542=CARTESIAN_POINT('',(-3.8800000001664,-1.98,6.));
#543=CARTESIAN_POINT('',(-3.8800000001664,-3.18,6.));
#544=CARTESIAN_POINT('',(2.9199999998336,-3.18,6.));
#545=CARTESIAN_POINT('',(2.9199999998336,-3.18,6.));
#546=CARTESIAN_POINT('',(2.9199999998336,14.92,6.));
#547=CARTESIAN_POINT('',(2.9199999998336,8.8208003202496,6.));
#548=CARTESIAN_POINT('',(2.87999999999999,9.82,6.));
#549=CARTESIAN_POINT('',(0.,0.,0.));
#550=CARTESIAN_POINT('',(0.,0.,0.));
#551=CARTESIAN_POINT('',(1.7,0.,0.));
#552=CARTESIAN_POINT('',(-3.8800000001664,7.62,0.));
#553=CARTESIAN_POINT('',(-3.8800000001664,8.82,0.));
#554=CARTESIAN_POINT('',(0.,8.82,0.));
#555=CARTESIAN_POINT('',(2.87999999999998,8.82,0.));
#556=CARTESIAN_POINT('',(2.87999999999998,9.82,0.));
#557=CARTESIAN_POINT('',(3.87999999999999,9.82,0.));
#558=CARTESIAN_POINT('',(3.87999999999999,0.,0.));
#559=CARTESIAN_POINT('',(15.88,-3.18,0.));
#560=CARTESIAN_POINT('',(15.88,-3.18,0.));
#561=CARTESIAN_POINT('',(2.9199999998336,-3.18,0.));
#562=CARTESIAN_POINT('',(-3.8800000001664,-3.18,0.));
#563=CARTESIAN_POINT('',(-3.8800000001664,-1.98,0.));
#564=CARTESIAN_POINT('',(16.9199999998336,8.82,6.5));
#565=CARTESIAN_POINT('',(-3.8800000001664,8.82,6.));
#566=CARTESIAN_POINT('',(2.87999999999999,8.82,6.50000000000002));
#567=CARTESIAN_POINT('',(0.,0.,6.));
#568=CARTESIAN_POINT('',(2.9199999998336,-3.18,6.));
#569=CARTESIAN_POINT('',(-3.8800000001664,-3.18,6.));
#570=CARTESIAN_POINT('',(15.88,-3.18,6.5));
#571=CARTESIAN_POINT('',(15.88,-3.18,6.5));
#572=CARTESIAN_POINT('',(16.9199999998336,-3.18,6.5));
#573=CARTESIAN_POINT('',(2.9199999998336,-3.18,6.5));
#574=CARTESIAN_POINT('',(2.9199999998336,-3.18,6.5));
#575=CARTESIAN_POINT('',(-3.8800000001664,-1.98,6.));
#576=CARTESIAN_POINT('',(2.9199999998336,2.82,6.5));
#577=CARTESIAN_POINT('',(2.9199999998336,8.78571428585691,7.14050999954943));
#578=CARTESIAN_POINT('',(2.9199999998336,8.80862281950203,6.92713976874763));
#579=CARTESIAN_POINT('',(2.9199999998336,8.8208003202496,6.71364215883429));
#580=CARTESIAN_POINT('',(2.9199999998336,8.82080032024959,6.5));
#581=CARTESIAN_POINT('',(2.9199999998336,8.78571428585691,7.14050999954943));
#582=CARTESIAN_POINT('',(2.9199999998336,8.82080032024959,6.5));
#583=CARTESIAN_POINT('',(2.9199999998336,8.82080032024959,6.5));
#584=CARTESIAN_POINT('',(2.9199999998336,2.82,6.5));
#585=CARTESIAN_POINT('',(16.9199999998336,2.82,6.5));
#586=CARTESIAN_POINT('',(15.88,2.82,6.5));
#587=CARTESIAN_POINT('',(15.88,7.96285714285715,9.59047252182627));
#588=CARTESIAN_POINT('',(9.87999999999999,2.82,6.5));
#589=CARTESIAN_POINT('',(9.87999999999999,2.82,12.5));
#590=CARTESIAN_POINT('',(9.87999999999999,2.82,6.5));
#591=CARTESIAN_POINT('',(16.9199999998336,2.82,6.5));
#592=CARTESIAN_POINT('',(3.9199999998336,2.82,6.5));
#593=CARTESIAN_POINT('',(3.9199999998336,8.07,6.5));
#594=CARTESIAN_POINT('',(15.88,2.82,6.5));
#595=CARTESIAN_POINT('',(15.88,8.07,6.5));
#596=CARTESIAN_POINT('',(15.88,2.82,6.5));
#597=CARTESIAN_POINT('',(15.88,8.82,6.49999999999999));
#598=CARTESIAN_POINT('',(15.88,9.82,6.49999999999999));
#599=CARTESIAN_POINT('',(15.88,7.96285714285715,9.59047252182627));
#600=CARTESIAN_POINT('',(15.88,8.58358237757309,8.55752329332962));
#601=CARTESIAN_POINT('',(15.88,9.36356695846407,7.61422596702625));
#602=CARTESIAN_POINT('',(15.88,9.82,6.49999999999974));
#603=CARTESIAN_POINT('',(3.9199999998336,2.82,6.5));
#604=CARTESIAN_POINT('',(9.87999999999999,8.82,6.49999999999999));
#605=CARTESIAN_POINT('',(9.87999999999999,2.82,6.5));
#606=CARTESIAN_POINT('',(3.87999999999999,9.82,6.49999999999999));
#607=CARTESIAN_POINT('',(9.87999999999999,2.82,6.5));
#608=CARTESIAN_POINT('',(3.87999999999999,8.82,6.49999999999999));
#609=CARTESIAN_POINT('',(3.87999999999999,8.82,6.49999999999999));
#610=CARTESIAN_POINT('',(3.87999999999999,9.82,6.49999999999999));
#611=CARTESIAN_POINT('',(9.87999999999999,9.82,6.5));
#612=CARTESIAN_POINT('',(9.87999999999999,9.82,6.5));
#613=CARTESIAN_POINT('',(4.62999999999999,9.82,6.5));
#614=CARTESIAN_POINT('',(9.87999999999999,8.82,6.5));
#615=CARTESIAN_POINT('',(2.87999999999999,9.82,6.49999999999999));
#616=CARTESIAN_POINT('',(2.87999999999999,9.82,6.5));
#617=CARTESIAN_POINT('',(9.87999999999999,2.82,12.5));
#618=CARTESIAN_POINT('',(9.87999999999999,2.82,12.5));
#619=CARTESIAN_POINT('',(9.87999999999999,2.82,12.5));
#620=CARTESIAN_POINT('',(8.9637021395869,3.6053981660692,12.5));
#621=CARTESIAN_POINT('',(9.02915198241796,3.67084801758231,12.5000000000022));
#622=CARTESIAN_POINT('',(9.09460183392938,3.73629786041337,12.5));
#623=CARTESIAN_POINT('',(7.13153358751585,5.17582835355746,12.1875874547097));
#624=CARTESIAN_POINT('',(7.26383194850428,5.43616805149549,12.1091577765134));
#625=CARTESIAN_POINT('',(7.52417164644319,5.56846641248397,12.1875874547097));
#626=CARTESIAN_POINT('',(4.80137507498043,7.17310707858825,10.8531070789223));
#627=CARTESIAN_POINT('',(5.17285638180087,7.52714361819947,10.5114819163449));
#628=CARTESIAN_POINT('',(5.52689292141156,7.89862492501974,10.8531070789223));
#629=CARTESIAN_POINT('',(3.24448130272746,8.50758745480516,8.85582835231672));
#630=CARTESIAN_POINT('',(4.03886351213846,8.66113648786018,8.39662953735665));
#631=CARTESIAN_POINT('',(4.19241254519488,9.45551869727197,8.8558283523169));
#632=CARTESIAN_POINT('',(2.87999999999959,8.82,7.28539816874162));
#633=CARTESIAN_POINT('',(3.87999999999325,8.82000000000975,7.1544984499046));
#634=CARTESIAN_POINT('',(3.87999999999999,9.82000000000159,7.28539816874122));
#635=CARTESIAN_POINT('',(2.87999999999999,8.82,6.49999999999999));
#636=CARTESIAN_POINT('',(3.87999999999999,8.82,6.49999999999999));
#637=CARTESIAN_POINT('',(3.87999999999999,9.82,6.49999999999998));
#638=CARTESIAN_POINT('',(9.87999999999999,2.82,12.5));
#639=CARTESIAN_POINT('',(9.87999999999999,2.82,12.5));
#640=CARTESIAN_POINT('',(9.87999999999999,2.82,12.5));
#641=CARTESIAN_POINT('',(10.6701105550654,3.74179564757646,12.5));
#642=CARTESIAN_POINT('',(10.7359531056894,3.6759531056894,12.5000000000023));
#643=CARTESIAN_POINT('',(10.8017956475753,3.61011055506594,12.5));
#644=CARTESIAN_POINT('',(12.2499542838415,5.58494666448163,12.1837784204414));
#645=CARTESIAN_POINT('',(12.5126134926359,5.45261349263568,12.1040747976839));
#646=CARTESIAN_POINT('',(12.6449466644824,5.18995428384124,12.1837784204414));
#647=CARTESIAN_POINT('',(14.2549256602574,7.92407993696709,10.8338860484793));
#648=CARTESIAN_POINT('',(14.6099814284586,7.54998142845971,10.48757494822));
#649=CARTESIAN_POINT('',(14.9840799369661,7.19492566025746,10.8338860484793));
#650=CARTESIAN_POINT('',(15.5858619497222,9.47683894134217,8.81628146952541));
#651=CARTESIAN_POINT('',(15.7341841079993,8.6741841079947,8.35719154491912));
#652=CARTESIAN_POINT('',(16.5368389413452,8.5258619497222,8.81628146952538));
#653=CARTESIAN_POINT('',(15.8871800289827,9.82837670048075,7.23352763606032));
#654=CARTESIAN_POINT('',(15.8847936121321,8.82479361214261,7.11215961759284));
#655=CARTESIAN_POINT('',(16.8883767004743,8.82718002898273,7.23352763606041));
#656=CARTESIAN_POINT('',(15.8797335226537,9.81968910976265,6.44345216940113));
#657=CARTESIAN_POINT('',(15.8798223346297,8.81982233462975,6.4528751337184));
#658=CARTESIAN_POINT('',(16.8796891097626,8.8197335226537,6.44345216940114));
#659=CARTESIAN_POINT('',(-3.8800000001664,7.62,6.5));
#660=MECHANICAL_DESIGN_GEOMETRIC_PRESENTATION_REPRESENTATION('',(#359),
#661);
#661=(
GEOMETRIC_REPRESENTATION_CONTEXT(3)
GLOBAL_UNCERTAINTY_ASSIGNED_CONTEXT((#662))
GLOBAL_UNIT_ASSIGNED_CONTEXT((#665,#664,#663))
REPRESENTATION_CONTEXT('CornerB','TOP_LEVEL_ASSEMBLY_PART')
);
#662=UNCERTAINTY_MEASURE_WITH_UNIT(LENGTH_MEASURE(0.005),#665,
'DISTANCE_ACCURACY_VALUE','Maximum Tolerance applied to model');
#663=(
NAMED_UNIT(*)
SI_UNIT($,.STERADIAN.)
SOLID_ANGLE_UNIT()
);
#664=(
NAMED_UNIT(*)
PLANE_ANGLE_UNIT()
SI_UNIT($,.RADIAN.)
);
#665=(
LENGTH_UNIT()
NAMED_UNIT(*)
SI_UNIT(.MILLI.,.METRE.)
);
#666=PRODUCT_DEFINITION_SHAPE('','',#667);
#667=PRODUCT_DEFINITION('','',#669,#668);
#668=PRODUCT_DEFINITION_CONTEXT('',#675,'design');
#669=PRODUCT_DEFINITION_FORMATION_WITH_SPECIFIED_SOURCE('','',#671,
 .NOT_KNOWN.);
#670=PRODUCT_RELATED_PRODUCT_CATEGORY('','',(#671));
#671=PRODUCT('CornerB','CornerB','CornerB',(#673));
#672=PRODUCT_CATEGORY('','');
#673=PRODUCT_CONTEXT('',#675,'mechanical');
#674=APPLICATION_PROTOCOL_DEFINITION('international standard',
'automotive_design',2010,#675);
#675=APPLICATION_CONTEXT(
'core data for automotive mechanical design processes');
ENDSEC;
END-ISO-10303-21;
